…
Histograma X: Es simetrica, ya que la media y ma moda son
parecidas

Histograma Y: Es asimetrica positiva, porque la media es mayor que la
moda

Punto 4

library(readxl)
Datos <- read_excel("C:/Users/Estudiante/Desktop/Datos/Datos a trabajar.xlsx")
Datos

## # A tibble: 564 × 8
##    `No. De Cliente` Tiempo con presencia de fallos en ho…¹ `Gasto en Kilovatios`
##               <dbl>                                  <dbl>                 <dbl>
##  1                1                                 0.183                   202.
##  2                2                                 0.0147                  186.
##  3                3                                 0.198                   198.
##  4                4                                 2.39                    194.
##  5                5                                 0.356                   209.
##  6                6                                 1.74                    209.
##  7                7                                 0.956                   214.
##  8                8                                 0.835                   199.
##  9                9                                 0.137                   206.
## 10               10                                 1.75                    189.
## # ℹ 554 more rows
## # ℹ abbreviated name: ¹​`Tiempo con presencia de fallos en hora`
## # ℹ 5 more variables: `Longitud de Cables` <dbl>,
## #   `Número de Reparaciones` <dbl>, `Temperaturas °C` <dbl>,
## #   `Tiempo de atención en llamadas a lineas de atención` <dbl>,
## #   `No. Llamadas recibidas por hora` <dbl>
…
